{
  "sections": {
    "image_banner": {
      "type": "image-banner",
      "settings": {
        "image": "shopify:\/\/shop_images\/pexels-victor-freitas-841130.jpg",
        "image_height": "medium",
        "adapt_height_first_image": false,
        "desktop_text_box_position": "flex-end",
        "show_text_box": true,
        "image_overlay_opacity": 0,
        "color_scheme": "background-1",
        "stack_images_on_mobile": true,
        "show_text_below": true
      }
    },
    "featured_products": {
      "type": "featured-collection",
      "settings": {
        "title": "Featured products",
        "collection": "all",
        "products_to_show": 4,
        "show_view_all": true,
        "swipe_on_mobile": false,
        "image_ratio": "square",
        "show_secondary_image": false,
        "add_image_padding": false,
        "show_image_outline": true,
        "show_vendor": false,
        "show_rating": false
      }
    },
    "164202326107e3383e": {
      "type": "multicolumn",
      "blocks": {
        "164202326159f6f10f-0": {
          "type": "column",
          "settings": {
            "image": "shopify:\/\/shop_images\/pexels-ketut-subiyanto-5039659.jpg",
            "title": "Column",
            "text": "<p>Pair text with an image to focus on your chosen product, collection, or blog post. Add details on availability, style, or even provide a review.<\/p>",
            "link_label": "",
            "link": ""
          }
        },
        "164202326159f6f10f-1": {
          "type": "column",
          "settings": {
            "image": "shopify:\/\/shop_images\/pexels-nathan-cowley-1153369.jpg",
            "title": "Column",
            "text": "<p>Pair text with an image to focus on your chosen product, collection, or blog post. Add details on availability, style, or even provide a review.<\/p>",
            "link_label": "",
            "link": ""
          }
        },
        "164202326159f6f10f-2": {
          "type": "column",
          "settings": {
            "image": "shopify:\/\/shop_images\/pexels-kate-trifo-4024914.jpg",
            "title": "Column",
            "text": "<p>Pair text with an image to focus on your chosen product, collection, or blog post. Add details on availability, style, or even provide a review.<\/p>",
            "link_label": "",
            "link": ""
          }
        }
      },
      "block_order": [
        "164202326159f6f10f-0",
        "164202326159f6f10f-1",
        "164202326159f6f10f-2"
      ],
      "settings": {
        "title": "Multicolumn",
        "image_width": "full",
        "image_ratio": "adapt",
        "column_alignment": "left",
        "background_style": "primary",
        "button_label": "Button label",
        "button_link": "",
        "swipe_on_mobile": false
      }
    },
    "164202326916276497": {
      "type": "collage",
      "blocks": {
        "164202326993027968-0": {
          "type": "video",
          "settings": {
            "cover_image": "shopify:\/\/shop_images\/pexels-andrea-piacquadio-3766226.jpg",
            "video_url": "https:\/\/youtu.be\/M0uO8X3_tEA",
            "description": "Describe the video",
            "image_padding": false
          }
        },
        "164202326993027968-1": {
          "type": "product",
          "settings": {
            "product": "plastic-bottle",
            "second_image": false,
            "image_padding": false,
            "secondary_background": false
          }
        },
        "164202326993027968-2": {
          "type": "collection",
          "settings": {
            "collection": "for-the-legs",
            "image_padding": false,
            "color_scheme": "background-1"
          }
        }
      },
      "block_order": [
        "164202326993027968-0",
        "164202326993027968-1",
        "164202326993027968-2"
      ],
      "settings": {
        "heading": "Multimedia collage",
        "desktop_layout": "left",
        "mobile_layout": "collage"
      }
    },
    "16420246115820c8af": {
      "type": "featured-product",
      "blocks": {
        "16420246113d660852-0": {
          "type": "text",
          "settings": {
            "text": "become the person you always wanted to be",
            "text_style": "uppercase"
          }
        },
        "16420246113d660852-1": {
          "type": "title",
          "settings": {
          }
        },
        "16420246113d660852-2": {
          "type": "text",
          "settings": {
            "text": "{{ section.settings.product.metafields.descriptors.subtitle.value }}",
            "text_style": "subtitle"
          }
        },
        "16420246113d660852-3": {
          "type": "price",
          "settings": {
          }
        },
        "16420246113d660852-4": {
          "type": "variant_picker",
          "settings": {
            "picker_type": "button"
          }
        },
        "16420246113d660852-5": {
          "type": "quantity_selector",
          "settings": {
          }
        },
        "16420246113d660852-6": {
          "type": "buy_buttons",
          "settings": {
            "show_dynamic_checkout": true
          }
        },
        "16420246113d660852-7": {
          "type": "share",
          "settings": {
            "share_label": "Share"
          }
        }
      },
      "block_order": [
        "16420246113d660852-0",
        "16420246113d660852-1",
        "16420246113d660852-2",
        "16420246113d660852-3",
        "16420246113d660852-4",
        "16420246113d660852-5",
        "16420246113d660852-6",
        "16420246113d660852-7"
      ],
      "settings": {
        "product": "good-ol-wooden-box",
        "secondary_background": false,
        "hide_variants": false,
        "enable_video_looping": false
      }
    },
    "1642024624e1f49d79": {
      "type": "image-with-text",
      "blocks": {
        "164202462459e15b8b-0": {
          "type": "heading",
          "settings": {
            "heading": "About Us"
          }
        },
        "164202462459e15b8b-1": {
          "type": "text",
          "settings": {
            "text": "<p>Juan and Sarah have over 40 combined years in the fitness industry.  Both know what the human body needs to perform, and understand the complexity of various body types.<\/p>"
          }
        },
        "164202462459e15b8b-2": {
          "type": "button",
          "settings": {
            "button_label": "Button label",
            "button_link": ""
          }
        }
      },
      "block_order": [
        "164202462459e15b8b-0",
        "164202462459e15b8b-1",
        "164202462459e15b8b-2"
      ],
      "settings": {
        "image": "shopify:\/\/shop_images\/pexels-edward-jenner-4031524.jpg",
        "height": "adapt",
        "color_scheme": "background-1",
        "layout": "image_first"
      }
    },
    "164202500476d1318f": {
      "type": "image-banner",
      "blocks": {
        "1642025004d51404d2-0": {
          "type": "heading",
          "settings": {
            "heading": "A Scientific Perspective",
            "heading_size": "medium"
          }
        },
        "1642025004d51404d2-1": {
          "type": "text",
          "settings": {
            "text": "Our Experts spend countless hours in the lab so you can be fit!"
          }
        },
        "1642025004d51404d2-2": {
          "type": "buttons",
          "settings": {
            "button_label_1": "Button label",
            "button_link_1": "",
            "button_style_secondary_1": false,
            "button_label_2": "Button label",
            "button_link_2": "",
            "button_style_secondary_2": false
          }
        }
      },
      "block_order": [
        "1642025004d51404d2-0",
        "1642025004d51404d2-1",
        "1642025004d51404d2-2"
      ],
      "settings": {
        "image": "shopify:\/\/shop_images\/pexels-pixabay-356040.jpg",
        "image_2": "shopify:\/\/shop_images\/Broccoli_edited-scaled.jpg",
        "image_height": "medium",
        "adapt_height_first_image": false,
        "desktop_text_box_position": "center",
        "show_text_box": true,
        "image_overlay_opacity": 0,
        "color_scheme": "background-1",
        "stack_images_on_mobile": true,
        "show_text_below": true
      }
    }
  },
  "order": [
    "image_banner",
    "featured_products",
    "164202326107e3383e",
    "164202326916276497",
    "16420246115820c8af",
    "1642024624e1f49d79",
    "164202500476d1318f"
  ]
}